%YAML 1.1
%TAG !u! tag:unity3d.com,2011:
--- !u!114 &11400000
MonoBehaviour:
  m_ObjectHideFlags: 0
  m_CorrespondingSourceObject: {fileID: 0}
  m_PrefabInstance: {fileID: 0}
  m_PrefabAsset: {fileID: 0}
  m_GameObject: {fileID: 0}
  m_Enabled: 1
  m_EditorHideFlags: 0
  m_Script: {fileID: 11500000, guid: 9409a1f6f0c9e49bdb5c5615017c65e0, type: 3}
  m_Name: Dice
  m_EditorClassIdentifier: 
  sprites:
  - {fileID: 21300000, guid: 39ef8c5b0a8405d41984b546da895c52, type: 3}
  - {fileID: 21300000, guid: eb6e222461d3d497ca6325f4940c9601, type: 3}
